<?xml version="1.0" encoding="iso-8859-1"?>
<!-- Generator: Adobe Illustrator 19.0.0, SVG Export Plug-In . SVG Version: 6.00 Build 0)  -->
<svg version="1.1" id="Layer_1" xmlns="http://www.w3.org/2000/svg" xmlns:xlink="http://www.w3.org/1999/xlink" x="0px" y="0px"
	 viewBox="0 0 511.981 511.981" style="enable-background:new 0 0 511.981 511.981;" xml:space="preserve">
<polygon style="fill:#F5F7FA;" points="489.324,101.341 455.982,61.342 406.64,37.343 361.33,26.672 335.986,37.343 295.988,16 
	217.327,16 170.657,37.343 129.995,33.499 98.996,39.999 61.997,58.498 26.499,100.997 12.499,146.495 23.999,218.992 
	66.997,267.491 95.996,280.99 98.996,458.483 415.984,453.983 415.984,347.987 415.484,280.49 473.326,242.663 497.324,195.993 
	497.324,137.339 "/>
<rect x="100" y="462.48" style="fill:#CCD1D9;" width="313.49" height="36.498"/>
<path d="M373.329,21.344c-13.499,0-26.562,1.922-38.889,5.531c-21.671-16.843-48.889-26.874-78.45-26.874
	c-29.562,0-56.787,10.031-78.45,26.874c-12.335-3.609-25.382-5.531-38.881-5.531C62.083,21.344,0,83.404,0,159.994
	C0,217.68,35.225,267.116,85.333,288.02V511.98H426.64V288.02c50.123-20.904,85.341-70.34,85.341-128.026
	C511.98,83.404,449.888,21.344,373.329,21.344z M394.64,490.637c0-5.874-4.766-10.655-10.655-10.655
	c-5.891,0-10.656,4.781-10.656,10.655h-21.343c0-5.874-4.781-10.655-10.656-10.655c-5.906,0-10.687,4.781-10.687,10.655h-21.312
	c0-5.874-4.781-10.655-10.688-10.655c-5.875,0-10.656,4.781-10.656,10.655h-21.334c0-5.874-4.773-10.655-10.664-10.655
	c-5.891,0-10.664,4.781-10.664,10.655H223.99c0-5.874-4.773-10.655-10.664-10.655c-5.89,0-10.671,4.781-10.671,10.655h-21.327
	c0-5.874-4.781-10.655-10.671-10.655c-5.891,0-10.664,4.781-10.664,10.655h-21.335c0-5.874-4.773-10.655-10.664-10.655
	c-5.891,0-10.664,4.781-10.664,10.655h-10.67v-21.311h298.668v21.311H394.64z M470.451,225.804
	c-12.906,19.015-30.891,33.718-52.014,42.53l-13.109,5.468v14.218v159.963H106.66V288.02v-14.218l-13.117-5.468
	c-21.125-8.812-39.108-23.515-52.021-42.53c-13.21-19.437-20.187-42.186-20.187-65.81c0-31.342,12.203-60.81,34.366-82.965
	c22.155-22.155,51.623-34.374,82.958-34.374c6.851,0,13.664,0.625,20.366,1.796c-19.335,22.421-31.03,51.607-31.03,83.544
	c0,5.89,4.773,10.656,10.664,10.656s10.671-4.766,10.671-10.656l0,0c0-28.499,11.093-55.279,31.241-75.419
	c20.14-20.14,46.928-31.233,75.419-31.233c28.498,0,55.279,11.093,75.419,31.233s31.233,46.92,31.233,75.419l0,0
	c0,5.89,4.781,10.656,10.687,10.656c5.875,0,10.656-4.766,10.656-10.656l0,0c0-31.937-11.687-61.123-31.03-83.544
	c6.703-1.171,13.516-1.796,20.374-1.796c31.327,0,60.795,12.218,82.95,34.374c22.171,22.155,34.357,51.623,34.357,82.965
	C490.636,183.618,483.669,206.368,470.451,225.804z"/>
<path d="M181.329,234.648c-5.891,0-10.671,4.781-10.671,10.688l0,0v149.305l0,0c0,5.906,4.781,10.688,10.671,10.688
	s10.664-4.781,10.664-10.688l0,0V245.335l0,0C191.992,239.429,187.219,234.648,181.329,234.648z"/>
<path d="M255.99,234.648c-5.891,0-10.664,4.781-10.664,10.688l0,0v149.305l0,0c0,5.906,4.773,10.688,10.664,10.688
	c5.891,0,10.664-4.781,10.664-10.688l0,0V245.335l0,0C266.654,239.429,261.881,234.648,255.99,234.648z"/>
<path d="M330.643,234.648c-5.875,0-10.655,4.781-10.655,10.688l0,0v149.305l0,0c0,5.906,4.78,10.688,10.655,10.688
	c5.905,0,10.687-4.781,10.687-10.688V245.335C341.33,239.429,336.549,234.648,330.643,234.648z"/>
<g>
</g>
<g>
</g>
<g>
</g>
<g>
</g>
<g>
</g>
<g>
</g>
<g>
</g>
<g>
</g>
<g>
</g>
<g>
</g>
<g>
</g>
<g>
</g>
<g>
</g>
<g>
</g>
<g>
</g>
</svg>
